…
## Plotting and various dplyr Commands

For the following commands, I often use the piping syntax, to improve the readability of the code.

This is how we can select a column, in this case "lifeExp", from the dataset. We use the select, as follows:

```r
gapminder %>%
  select(lifeExp)
```

```
## # A tibble: 1,704 x 1
##    lifeExp
##      <dbl>
##  1    28.8
##  2    30.3
##  3    32.0
##  4    34.0
##  5    36.1
##  6    38.4
##  7    39.9
##  8    40.8
##  9    41.7
## 10    41.8
## # ... with 1,694 more rows
```

This is how we can select certain rows, in this case rows where the life expectancy exceeds 40, from the dataset. We use filter, as follows:

```r
gapminder %>%
  filter(lifeExp > 40)
```

```
## # A tibble: 1,579 x 6
##    country     continent  year lifeExp      pop gdpPercap
##    <fct>       <fct>     <int>   <dbl>    <int>     <dbl>
##  1 Afghanistan Asia       1987    40.8 13867957      852.
##  2 Afghanistan Asia       1992    41.7 16317921      649.
##  3 Afghanistan Asia       1997    41.8 22227415      635.
##  4 Afghanistan Asia       2002    42.1 25268405      727.
##  5 Afghanistan Asia       2007    43.8 31889923      975.
##  6 Albania     Europe     1952    55.2  1282697     1601.
##  7 Albania     Europe     1957    59.3  1476505     1942.
##  8 Albania     Europe     1962    64.8  1728137     2313.
##  9 Albania     Europe     1967    66.2  1984060     2760.
## 10 Albania     Europe     1972    67.7  2263554     3313.
## # ... with 1,569 more rows
```
…
